^F:\C++\ERRORS510\ERRORS510\DEBUG\ERRORS510.OBJ|F:\C++\ERRORS510\ERRORS510\DEBUG\FRACTION.OBJ
F:\C++\ERRORS510\DEBUG\ERRORS510.EXE
F:\C++\ERRORS510\ERRORS510\DEBUG\ERRORS510.ILK
F:\C++\ERRORS510\DEBUG\ERRORS510.PDB
